{
    "Version": "2012-10-17",
    "Statement": [
        {
            "Sid": "VisualEditor0",
            "Effect": "Allow",
            "Action": [
                "s3:ListBucketMultipartUploads",
                "s3:ListBucketVersions",
                "s3:ListBucket",
                "s3:ListMultipartUploadParts"
            ],
            "Resource": "arn:aws:s3:::bucket-name"
        },
        {
            "Effect": "Allow",
            "Action": [
                "s3:PutObject",
                "s3:GetObject"
            ],
            "Resource": "arn:aws:s3:::bucket-name/*"
        }
    ]
}
